Builds
…
stock <- tq_get("AAPL", get = "stock.prices", from = " 2021-01-01")

The target for this experiment is to use historical data from the beginning of 2021 and try to forecast the stock price of the next 2 weeks. We will use timetk diff_vec() function to perform differencing on the data to remove the trends and make the data stationary.

stock_tbl <- stock %>%
  select(date, close) %>%
  filter(date >= "2021/01/01") %>%
  set_names(c("date", "value")) %>%
  mutate(value = diff_vec(value)) %>%
  mutate(value = replace_na(value, 0))
  
stock_tbl

## # A tibble: 89 x 2
##    date        value
##    <date>      <dbl>
##  1 2021-01-04  0    
##  2 2021-01-05  1.60 
##  3 2021-01-06 -4.41 
##  4 2021-01-07  4.32 
##  5 2021-01-08  1.13 
##  6 2021-01-11 -3.07 
##  7 2021-01-12 -0.180
##  8 2021-01-13  2.09 
##  9 2021-01-14 -1.98 
## 10 2021-01-15 -1.77 
## # ... with 79 more rows
…
recipe_spec <- recipe(value ~ date, training(splits)) %>%
  step_timeseries_signature(date) %>%
  step_rm(contains("am.pm"), contains("hour"), contains("minute"),
          contains("second"), contains("xts"), contains("half"),
          contains(".iso")) %>%
  step_normalize(date_index.num) %>%
  step_fourier(date, period = 12, K = 1) %>%
  step_dummy(all_nominal())
  
recipe_spec_parsnip <- recipe_spec %>%
  update_role(date, new_role = "ID")

bake(recipe_spec %>% prep(), new_data = NULL)

## # A tibble: 75 x 36
##    date        value date_index.num date_year date_quarter date_month date_day
##    <date>      <dbl>          <dbl>     <int>        <int>      <int>    <int>
##  1 2021-01-04  0              -1.68      2021            1          1        4
##  2 2021-01-05  1.60           -1.65      2021            1          1        5
##  3 2021-01-06 -4.41           -1.62      2021            1          1        6
##  4 2021-01-07  4.32           -1.58      2021            1          1        7
##  5 2021-01-08  1.13           -1.55      2021            1          1        8
##  6 2021-01-11 -3.07           -1.46      2021            1          1       11
##  7 2021-01-12 -0.180          -1.43      2021            1          1       12
##  8 2021-01-13  2.09           -1.40      2021            1          1       13
##  9 2021-01-14 -1.98           -1.36      2021            1          1       14
## 10 2021-01-15 -1.77           -1.33      2021            1          1       15
## # ... with 65 more rows, and 29 more variables: date_wday <int>,
## #   date_mday <int>, date_qday <int>, date_yday <int>, date_mweek <int>,
## #   date_week <int>, date_week2 <int>, date_week3 <int>, date_week4 <int>,
## #   date_mday7 <int>, date_sin12_K1 <dbl>, date_cos12_K1 <dbl>,
## #   date_month.lbl_01 <dbl>, date_month.lbl_02 <dbl>, date_month.lbl_03 <dbl>,
## #   date_month.lbl_04 <dbl>, date_month.lbl_05 <dbl>, date_month.lbl_06 <dbl>,
## #   date_month.lbl_07 <dbl>, date_month.lbl_08 <dbl>, date_month.lbl_09 <dbl>,
## #   date_month.lbl_10 <dbl>, date_month.lbl_11 <dbl>, date_wday.lbl_1 <dbl>,
## #   date_wday.lbl_2 <dbl>, date_wday.lbl_3 <dbl>, date_wday.lbl_4 <dbl>,
…
